{
  "coverage": "97.65%",
  "expectCount": 128,
  "actualCount": 125,
  "files": {
    "src/api/akomando.js": {
      "expectCount": 19,
      "actualCount": 19,
      "undocumentLines": []
    },
    "src/bin/akomando.js": {
      "expectCount": 15,
      "actualCount": 15,
      "undocumentLines": []
    },
    "src/classes/components-handler.js": {
      "expectCount": 3,
      "actualCount": 3,
      "undocumentLines": []
    },
    "src/classes/document-handler.js": {
      "expectCount": 37,
      "actualCount": 36,
      "undocumentLines": [
        97
      ]
    },
    "src/classes/hiers-handler.js": {
      "expectCount": 4,
      "actualCount": 4,
      "undocumentLines": []
    },
    "src/classes/id-handler.js": {
      "expectCount": 9,
      "actualCount": 7,
      "undocumentLines": [
        8,
        9
      ]
    },
    "src/classes/meta-handler.js": {
      "expectCount": 3,
      "actualCount": 3,
      "undocumentLines": []
    },
    "src/classes/query-builder.js": {
      "expectCount": 6,
      "actualCount": 6,
      "undocumentLines": []
    },
    "src/classes/query-handler.js": {
      "expectCount": 4,
      "actualCount": 4,
      "undocumentLines": []
    },
    "src/classes/references-handler.js": {
      "expectCount": 4,
      "actualCount": 4,
      "undocumentLines": []
    },
    "src/classes/xpath-handler.js": {
      "expectCount": 3,
      "actualCount": 3,
      "undocumentLines": []
    },
    "src/constants/utils/utils.js": {
      "expectCount": 21,
      "actualCount": 21,
      "undocumentLines": []
    }
  }
}